{
  "From": "0.1.1",
  "To": "0.1.2",
  "Hash": "yLEtrnysmXwGQgxBnbpP5H3d+R4",
  "TotalSize": 2751,
  "Entries": [
    {
      "Operation": 3,
      "RelativePath": "Game.exe",
      "Attributes": 32,
      "LastWriting": "2020-11-18T22:01:08Z",
      "Size": 0
    },
    {
      "Operation": 3,
      "RelativePath": "UnityCrashHandler32.exe",
      "Attributes": 32,
      "LastWriting": "2020-11-18T21:55:12Z",
      "Size": 0
    },
    {
      "Operation": 3,
      "RelativePath": "UnityPlayer.dll",
      "Attributes": 32,
      "LastWriting": "2020-11-18T22:02:02Z",
      "Size": 0
    },
    {
      "Operation": 3,
      "RelativePath": "Game_Data/app.info",
      "Attributes": 32,
      "LastWriting": "2021-04-30T18:28:08.7494483Z",
      "Size": 0
    },
    {
      "Operation": 3,
      "RelativePath": "Game_Data/boot.config",
      "Attributes": 32,
      "LastWriting": "2021-04-30T18:28:08.6993153Z",
      "Size": 0
    },
    {
      "Operation": 2,
      "RelativePath": "Game_Data/globalgamemanagers",
      "Attributes": 32,
      "LastWriting": "2021-04-30T18:28:08.1348145Z",
      "Size": 0
    },
    {
      "Operation": 3,
      "RelativePath": "Game_Data/globalgamemanagers.assets",
      "Attributes": 32,
      "LastWriting": "2021-04-30T18:28:08.2461095Z",
      "Size": 0
    },
    {
      "Operation": 2,
      "RelativePath": "Game_Data/level0",
      "Attributes": 32,
      "LastWriting": "2021-04-30T18:28:07.1361593Z",
      "Size": 0
    },
    {
      "Operation": 3,
      "RelativePath": "Game_Data/resources.assets",
      "Attributes": 32,
      "LastWriting": "2021-04-30T18:28:08.285214Z",
      "Size": 0
    },
    {
      "Operation": 3,
      "RelativePath": "Game_Data/resources.assets.resS",
      "Attributes": 32,
      "LastWriting": "2021-04-30T18:28:08.285214Z",
      "Size": 0
    },
    {
      "Operation": 3,
      "RelativePath": "Game_Data/sharedassets0.assets",
      "Attributes": 32,
      "LastWriting": "2021-04-30T18:28:08.5820029Z",
      "Size": 0
    },
    {
      "Operation": 3,
      "RelativePath": "Game_Data/Managed/Assembly-CSharp.dll",
      "Attributes": 32,
      "LastWriting": "2021-04-30T18:28:06.5114989Z",
      "Size": 0
    },
    {
      "Operation": 3,
      "RelativePath": "Game_Data/Managed/ICSharpCode.SharpZipLib.dll",
      "Attributes": 32,
      "LastWriting": "2021-01-26T16:14:41Z",
      "Size": 0
    },
    {
      "Operation": 3,
      "RelativePath": "Game_Data/Managed/MHLab.Patch.Core.Admin.dll",
      "Attributes": 32,
      "LastWriting": "2021-01-26T16:14:24Z",
      "Size": 0
    },
    {
      "Operation": 3,
      "RelativePath": "Game_Data/Managed/MHLab.Patch.Core.Client.dll",
      "Attributes": 32,
      "LastWriting": "2021-01-26T16:14:41Z",
      "Size": 0
    },
    {
      "Operation": 3,
      "RelativePath": "Game_Data/Managed/MHLab.Patch.Core.dll",
      "Attributes": 32,
      "LastWriting": "2021-01-26T16:14:25Z",
      "Size": 0
    },
    {
      "Operation": 3,
      "RelativePath": "Game_Data/Managed/Mono.Security.dll",
      "Attributes": 32,
      "LastWriting": "2020-11-18T21:31:24Z",
      "Size": 0
    },
    {
      "Operation": 3,
      "RelativePath": "Game_Data/Managed/mscorlib.dll",
      "Attributes": 32,
      "LastWriting": "2020-11-18T21:31:24Z",
      "Size": 0
    },
    {
      "Operation": 3,
      "RelativePath": "Game_Data/Managed/netstandard.dll",
      "Attributes": 32,
      "LastWriting": "2020-11-18T21:31:24Z",
      "Size": 0
    },
    {
      "Operation": 3,
      "RelativePath": "Game_Data/Managed/Newtonsoft.Json.dll",
      "Attributes": 32,
      "LastWriting": "2021-01-26T16:14:24Z",
      "Size": 0
    },
    {
      "Operation": 3,
      "RelativePath": "Game_Data/Managed/Serilog.dll",
      "Attributes": 32,
      "LastWriting": "2021-01-26T16:14:27Z",
      "Size": 0
    },
    {
      "Operation": 3,
      "RelativePath": "Game_Data/Managed/Serilog.Sinks.File.dll",
      "Attributes": 32,
      "LastWriting": "2021-01-26T16:14:11Z",
      "Size": 0
    },
    {
      "Operation": 3,
      "RelativePath": "Game_Data/Managed/System.Collections.dll",
      "Attributes": 32,
      "LastWriting": "2020-11-18T21:31:24Z",
      "Size": 0
    },
    {
      "Operation": 3,
      "RelativePath": "Game_Data/Managed/System.ComponentModel.Composition.dll",
      "Attributes": 32,
      "LastWriting": "2020-11-18T21:31:24Z",
      "Size": 0
    },
    {
      "Operation": 3,
      "RelativePath": "Game_Data/Managed/System.Configuration.dll",
      "Attributes": 32,
      "LastWriting": "2020-11-18T21:31:24Z",
      "Size": 0
    },
    {
      "Operation": 3,
      "RelativePath": "Game_Data/Managed/System.Core.dll",
      "Attributes": 32,
      "LastWriting": "2020-11-18T21:31:24Z",
      "Size": 0
    },
    {
      "Operation": 3,
      "RelativePath": "Game_Data/Managed/System.Data.dll",
      "Attributes": 32,
      "LastWriting": "2020-11-18T21:31:24Z",
      "Size": 0
    },
    {
      "Operation": 3,
      "RelativePath": "Game_Data/Managed/System.Diagnostics.StackTrace.dll",
      "Attributes": 32,
      "LastWriting": "2020-11-18T21:31:24Z",
      "Size": 0
    },
    {
      "Operation": 3,
      "RelativePath": "Game_Data/Managed/System.dll",
      "Attributes": 32,
      "LastWriting": "2020-11-18T21:31:24Z",
      "Size": 0
    },
    {
      "Operation": 3,
      "RelativePath": "Game_Data/Managed/System.Drawing.dll",
      "Attributes": 32,
      "LastWriting": "2020-11-18T21:31:24Z",
      "Size": 0
    },
    {
      "Operation": 3,
      "RelativePath": "Game_Data/Managed/System.EnterpriseServices.dll",
      "Attributes": 32,
      "LastWriting": "2020-11-18T21:31:24Z",
      "Size": 0
    },
    {
      "Operation": 3,
      "RelativePath": "Game_Data/Managed/System.Globalization.dll",
      "Attributes": 32,
      "LastWriting": "2020-11-18T21:31:24Z",
      "Size": 0
    },
    {
      "Operation": 3,
      "RelativePath": "Game_Data/Managed/System.Globalization.Extensions.dll",
      "Attributes": 32,
      "LastWriting": "2020-11-18T21:31:24Z",
      "Size": 0
    },
    {
      "Operation": 3,
      "RelativePath": "Game_Data/Managed/System.IO.Compression.dll",
      "Attributes": 32,
      "LastWriting": "2020-11-18T21:31:24Z",
      "Size": 0
    },
    {
      "Operation": 3,
      "RelativePath": "Game_Data/Managed/System.IO.Compression.FileSystem.dll",
      "Attributes": 32,
      "LastWriting": "2020-11-18T21:31:24Z",
      "Size": 0
    },
    {
      "Operation": 3,
      "RelativePath": "Game_Data/Managed/System.IO.dll",
      "Attributes": 32,
      "LastWriting": "2020-11-18T21:31:24Z",
      "Size": 0
    },
    {
      "Operation": 3,
      "RelativePath": "Game_Data/Managed/System.IO.FileSystem.dll",
      "Attributes": 32,
      "LastWriting": "2020-11-18T21:31:24Z",
      "Size": 0
    },
    {
      "Operation": 3,
      "RelativePath": "Game_Data/Managed/System.IO.FileSystem.Primitives.dll",
      "Attributes": 32,
      "LastWriting": "2020-11-18T21:31:24Z",
      "Size": 0
    },
    {
      "Operation": 3,
      "RelativePath": "Game_Data/Managed/System.Linq.dll",
      "Attributes": 32,
      "LastWriting": "2020-11-18T21:31:24Z",
      "Size": 0
    },
    {
      "Operation": 3,
      "RelativePath": "Game_Data/Managed/System.Net.Http.dll",
      "Attributes": 32,
      "LastWriting": "2020-11-18T21:31:24Z",
      "Size": 0
    },
    {
      "Operation": 3,
      "RelativePath": "Game_Data/Managed/System.Numerics.dll",
      "Attributes": 32,
      "LastWriting": "2020-11-18T21:31:24Z",
      "Size": 0
    },
    {
      "Operation": 3,
      "RelativePath": "Game_Data/Managed/System.Runtime.dll",
      "Attributes": 32,
      "LastWriting": "2020-11-18T21:31:24Z",
      "Size": 0
    },
    {
      "Operation": 3,
      "RelativePath": "Game_Data/Managed/System.Runtime.Extensions.dll",
      "Attributes": 32,
      "LastWriting": "2020-11-18T21:31:24Z",
      "Size": 0
    },
    {
      "Operation": 3,
      "RelativePath": "Game_Data/Managed/System.Runtime.Serialization.dll",
      "Attributes": 32,
      "LastWriting": "2020-11-18T21:31:24Z",
      "Size": 0
    },
    {
      "Operation": 3,
      "RelativePath": "Game_Data/Managed/System.Runtime.Serialization.Xml.dll",
      "Attributes": 32,
      "LastWriting": "2020-11-18T21:31:24Z",
      "Size": 0
    },
    {
      "Operation": 3,
      "RelativePath": "Game_Data/Managed/System.ServiceModel.Internals.dll",
      "Attributes": 32,
      "LastWriting": "2020-11-18T21:31:24Z",
      "Size": 0
    },
    {
      "Operation": 3,
      "RelativePath": "Game_Data/Managed/System.Text.Encoding.dll",
      "Attributes": 32,
      "LastWriting": "2020-11-18T21:31:24Z",
      "Size": 0
    },
    {
      "Operation": 3,
      "RelativePath": "Game_Data/Managed/System.Text.Encoding.Extensions.dll",
      "Attributes": 32,
      "LastWriting": "2020-11-18T21:31:24Z",
      "Size": 0
    },
    {
      "Operation": 3,
      "RelativePath": "Game_Data/Managed/System.Text.RegularExpressions.dll",
      "Attributes": 32,
      "LastWriting": "2020-11-18T21:31:24Z",
      "Size": 0
    },
    {
      "Operation": 3,
      "RelativePath": "Game_Data/Managed/System.Threading.dll",
      "Attributes": 32,
      "LastWriting": "2020-11-18T21:31:24Z",
      "Size": 0
    },
    {
      "Operation": 3,
      "RelativePath": "Game_Data/Managed/System.Threading.Timer.dll",
      "Attributes": 32,
      "LastWriting": "2020-11-18T21:31:24Z",
      "Size": 0
    },
    {
      "Operation": 3,
      "RelativePath": "Game_Data/Managed/System.Transactions.dll",
      "Attributes": 32,
      "LastWriting": "2020-11-18T21:31:24Z",
      "Size": 0
    },
    {
      "Operation": 3,
      "RelativePath": "Game_Data/Managed/System.Xml.dll",
      "Attributes": 32,
      "LastWriting": "2020-11-18T21:31:24Z",
      "Size": 0
    },
    {
      "Operation": 3,
      "RelativePath": "Game_Data/Managed/System.Xml.Linq.dll",
      "Attributes": 32,
      "LastWriting": "2020-11-18T21:31:24Z",
      "Size": 0
    },
    {
      "Operation": 3,
      "RelativePath": "Game_Data/Managed/System.Xml.XPath.XDocument.dll",
      "Attributes": 32,
      "LastWriting": "2020-11-18T21:31:24Z",
      "Size": 0
    },
    {
      "Operation": 3,
      "RelativePath": "Game_Data/Managed/Unity.TextMeshPro.dll",
      "Attributes": 32,
      "LastWriting": "2021-04-30T18:28:06.3621017Z",
      "Size": 0
    },
    {
      "Operation": 3,
      "RelativePath": "Game_Data/Managed/Unity.Timeline.dll",
      "Attributes": 32,
      "LastWriting": "2021-04-30T18:28:06.2096969Z",
      "Size": 0
    },
    {
      "Operation": 3,
      "RelativePath": "Game_Data/Managed/UnityEngine.AccessibilityModule.dll",
      "Attributes": 32,
      "LastWriting": "2020-11-18T22:01:14Z",
      "Size": 0
    },
    {
      "Operation": 3,
      "RelativePath": "Game_Data/Managed/UnityEngine.AIModule.dll",
      "Attributes": 32,
      "LastWriting": "2020-11-18T22:01:14Z",
      "Size": 0
    },
    {
      "Operation": 3,
      "RelativePath": "Game_Data/Managed/UnityEngine.AndroidJNIModule.dll",
      "Attributes": 32,
      "LastWriting": "2020-11-18T22:01:14Z",
      "Size": 0
    },
    {
      "Operation": 3,
      "RelativePath": "Game_Data/Managed/UnityEngine.AnimationModule.dll",
      "Attributes": 32,
      "LastWriting": "2020-11-18T22:01:14Z",
      "Size": 0
    },
    {
      "Operation": 3,
      "RelativePath": "Game_Data/Managed/UnityEngine.ARModule.dll",
      "Attributes": 32,
      "LastWriting": "2020-11-18T22:01:38Z",
      "Size": 0
    },
    {
      "Operation": 3,
      "RelativePath": "Game_Data/Managed/UnityEngine.AssetBundleModule.dll",
      "Attributes": 32,
      "LastWriting": "2020-11-18T22:01:18Z",
      "Size": 0
    },
    {
      "Operation": 3,
      "RelativePath": "Game_Data/Managed/UnityEngine.AudioModule.dll",
      "Attributes": 32,
      "LastWriting": "2020-11-18T22:01:14Z",
      "Size": 0
    },
    {
      "Operation": 3,
      "RelativePath": "Game_Data/Managed/UnityEngine.ClothModule.dll",
      "Attributes": 32,
      "LastWriting": "2020-11-18T22:01:26Z",
      "Size": 0
    },
    {
      "Operation": 3,
      "RelativePath": "Game_Data/Managed/UnityEngine.ClusterInputModule.dll",
      "Attributes": 32,
      "LastWriting": "2020-11-18T22:01:14Z",
      "Size": 0
    },
    {
      "Operation": 3,
      "RelativePath": "Game_Data/Managed/UnityEngine.ClusterRendererModule.dll",
      "Attributes": 32,
      "LastWriting": "2020-11-18T22:01:18Z",
      "Size": 0
    },
    {
      "Operation": 3,
      "RelativePath": "Game_Data/Managed/UnityEngine.CoreModule.dll",
      "Attributes": 32,
      "LastWriting": "2020-11-18T22:01:10Z",
      "Size": 0
    },
    {
      "Operation": 3,
      "RelativePath": "Game_Data/Managed/UnityEngine.CrashReportingModule.dll",
      "Attributes": 32,
      "LastWriting": "2020-11-18T22:01:46Z",
      "Size": 0
    },
    {
      "Operation": 3,
      "RelativePath": "Game_Data/Managed/UnityEngine.DirectorModule.dll",
      "Attributes": 32,
      "LastWriting": "2020-11-18T22:01:22Z",
      "Size": 0
    },
    {
      "Operation": 3,
      "RelativePath": "Game_Data/Managed/UnityEngine.dll",
      "Attributes": 32,
      "LastWriting": "2020-11-18T22:01:50Z",
      "Size": 0
    },
    {
      "Operation": 3,
      "RelativePath": "Game_Data/Managed/UnityEngine.DSPGraphModule.dll",
      "Attributes": 32,
      "LastWriting": "2020-11-18T22:01:18Z",
      "Size": 0
    },
    {
      "Operation": 3,
      "RelativePath": "Game_Data/Managed/UnityEngine.GameCenterModule.dll",
      "Attributes": 32,
      "LastWriting": "2020-11-18T22:01:18Z",
      "Size": 0
    },
    {
      "Operation": 3,
      "RelativePath": "Game_Data/Managed/UnityEngine.GridModule.dll",
      "Attributes": 32,
      "LastWriting": "2020-11-18T22:01:14Z",
      "Size": 0
    },
    {
      "Operation": 3,
      "RelativePath": "Game_Data/Managed/UnityEngine.HotReloadModule.dll",
      "Attributes": 32,
      "LastWriting": "2020-11-18T22:01:14Z",
      "Size": 0
    },
    {
      "Operation": 3,
      "RelativePath": "Game_Data/Managed/UnityEngine.ImageConversionModule.dll",
      "Attributes": 32,
      "LastWriting": "2020-11-18T22:01:14Z",
      "Size": 0
    },
    {
      "Operation": 3,
      "RelativePath": "Game_Data/Managed/UnityEngine.IMGUIModule.dll",
      "Attributes": 32,
      "LastWriting": "2020-11-18T22:01:28Z",
      "Size": 0
    },
    {
      "Operation": 3,
      "RelativePath": "Game_Data/Managed/UnityEngine.InputLegacyModule.dll",
      "Attributes": 32,
      "LastWriting": "2020-11-18T22:01:14Z",
      "Size": 0
    },
    {
      "Operation": 3,
      "RelativePath": "Game_Data/Managed/UnityEngine.InputModule.dll",
      "Attributes": 32,
      "LastWriting": "2020-11-18T22:01:20Z",
      "Size": 0
    },
    {
      "Operation": 3,
      "RelativePath": "Game_Data/Managed/UnityEngine.JSONSerializeModule.dll",
      "Attributes": 32,
      "LastWriting": "2020-11-18T22:01:14Z",
      "Size": 0
    },
    {
      "Operation": 3,
      "RelativePath": "Game_Data/Managed/UnityEngine.LocalizationModule.dll",
      "Attributes": 32,
      "LastWriting": "2020-11-18T22:01:14Z",
      "Size": 0
    },
    {
      "Operation": 3,
      "RelativePath": "Game_Data/Managed/UnityEngine.ParticleSystemModule.dll",
      "Attributes": 32,
      "LastWriting": "2020-11-18T22:01:14Z",
      "Size": 0
    },
    {
      "Operation": 3,
      "RelativePath": "Game_Data/Managed/UnityEngine.PerformanceReportingModule.dll",
      "Attributes": 32,
      "LastWriting": "2020-11-18T22:01:44Z",
      "Size": 0
    },
    {
      "Operation": 3,
      "RelativePath": "Game_Data/Managed/UnityEngine.Physics2DModule.dll",
      "Attributes": 32,
      "LastWriting": "2020-11-18T22:01:14Z",
      "Size": 0
    },
    {
      "Operation": 3,
      "RelativePath": "Game_Data/Managed/UnityEngine.PhysicsModule.dll",
      "Attributes": 32,
      "LastWriting": "2020-11-18T22:01:14Z",
      "Size": 0
    },
    {
      "Operation": 3,
      "RelativePath": "Game_Data/Managed/UnityEngine.ProfilerModule.dll",
      "Attributes": 32,
      "LastWriting": "2020-11-18T22:01:14Z",
      "Size": 0
    },
    {
      "Operation": 3,
      "RelativePath": "Game_Data/Managed/UnityEngine.ScreenCaptureModule.dll",
      "Attributes": 32,
      "LastWriting": "2020-11-18T22:01:18Z",
      "Size": 0
    },
    {
      "Operation": 3,
      "RelativePath": "Game_Data/Managed/UnityEngine.SharedInternalsModule.dll",
      "Attributes": 32,
      "LastWriting": "2020-11-18T21:55:12Z",
      "Size": 0
    },
    {
      "Operation": 3,
      "RelativePath": "Game_Data/Managed/UnityEngine.SpriteMaskModule.dll",
      "Attributes": 32,
      "LastWriting": "2020-11-18T22:01:14Z",
      "Size": 0
    },
    {
      "Operation": 3,
      "RelativePath": "Game_Data/Managed/UnityEngine.SpriteShapeModule.dll",
      "Attributes": 32,
      "LastWriting": "2020-11-18T22:01:14Z",
      "Size": 0
    },
    {
      "Operation": 3,
      "RelativePath": "Game_Data/Managed/UnityEngine.StreamingModule.dll",
      "Attributes": 32,
      "LastWriting": "2020-11-18T22:01:14Z",
      "Size": 0
    },
    {
      "Operation": 3,
      "RelativePath": "Game_Data/Managed/UnityEngine.SubstanceModule.dll",
      "Attributes": 32,
      "LastWriting": "2020-11-18T22:01:14Z",
      "Size": 0
    },
    {
      "Operation": 3,
      "RelativePath": "Game_Data/Managed/UnityEngine.SubsystemsModule.dll",
      "Attributes": 32,
      "LastWriting": "2020-11-18T22:01:20Z",
      "Size": 0
    },
    {
      "Operation": 3,
      "RelativePath": "Game_Data/Managed/UnityEngine.TerrainModule.dll",
      "Attributes": 32,
      "LastWriting": "2020-11-18T22:01:14Z",
      "Size": 0
    },
    {
      "Operation": 3,
      "RelativePath": "Game_Data/Managed/UnityEngine.TerrainPhysicsModule.dll",
      "Attributes": 32,
      "LastWriting": "2020-11-18T22:01:30Z",
      "Size": 0
    },
    {
      "Operation": 3,
      "RelativePath": "Game_Data/Managed/UnityEngine.TextCoreModule.dll",
      "Attributes": 32,
      "LastWriting": "2020-11-18T22:01:30Z",
      "Size": 0
    },
    {
      "Operation": 3,
      "RelativePath": "Game_Data/Managed/UnityEngine.TextRenderingModule.dll",
      "Attributes": 32,
      "LastWriting": "2020-11-18T22:01:14Z",
      "Size": 0
    },
    {
      "Operation": 3,
      "RelativePath": "Game_Data/Managed/UnityEngine.TilemapModule.dll",
      "Attributes": 32,
      "LastWriting": "2020-11-18T22:01:26Z",
      "Size": 0
    },
    {
      "Operation": 3,
      "RelativePath": "Game_Data/Managed/UnityEngine.TLSModule.dll",
      "Attributes": 32,
      "LastWriting": "2020-11-18T22:01:14Z",
      "Size": 0
    },
    {
      "Operation": 3,
      "RelativePath": "Game_Data/Managed/UnityEngine.UI.dll",
      "Attributes": 32,
      "LastWriting": "2021-04-30T18:28:05.9770783Z",
      "Size": 0
    },
    {
      "Operation": 3,
      "RelativePath": "Game_Data/Managed/UnityEngine.UIElementsModule.dll",
      "Attributes": 32,
      "LastWriting": "2020-11-18T22:01:48Z",
      "Size": 0
    },
    {
      "Operation": 3,
      "RelativePath": "Game_Data/Managed/UnityEngine.UIElementsNativeModule.dll",
      "Attributes": 32,
      "LastWriting": "2020-11-18T22:01:42Z",
      "Size": 0
    },
    {
      "Operation": 3,
      "RelativePath": "Game_Data/Managed/UnityEngine.UIModule.dll",
      "Attributes": 32,
      "LastWriting": "2020-11-18T22:01:26Z",
      "Size": 0
    },
    {
      "Operation": 3,
      "RelativePath": "Game_Data/Managed/UnityEngine.UmbraModule.dll",
      "Attributes": 32,
      "LastWriting": "2020-11-18T22:01:14Z",
      "Size": 0
    },
    {
      "Operation": 3,
      "RelativePath": "Game_Data/Managed/UnityEngine.UNETModule.dll",
      "Attributes": 32,
      "LastWriting": "2020-11-18T22:01:40Z",
      "Size": 0
    },
    {
      "Operation": 3,
      "RelativePath": "Game_Data/Managed/UnityEngine.UnityAnalyticsModule.dll",
      "Attributes": 32,
      "LastWriting": "2020-11-18T22:01:40Z",
      "Size": 0
    },
    {
      "Operation": 3,
      "RelativePath": "Game_Data/Managed/UnityEngine.UnityConnectModule.dll",
      "Attributes": 32,
      "LastWriting": "2020-11-18T22:01:14Z",
      "Size": 0
    },
    {
      "Operation": 3,
      "RelativePath": "Game_Data/Managed/UnityEngine.UnityTestProtocolModule.dll",
      "Attributes": 32,
      "LastWriting": "2020-11-18T22:01:20Z",
      "Size": 0
    },
    {
      "Operation": 3,
      "RelativePath": "Game_Data/Managed/UnityEngine.UnityWebRequestAssetBundleModule.dll",
      "Attributes": 32,
      "LastWriting": "2020-11-18T22:01:40Z",
      "Size": 0
    },
    {
      "Operation": 3,
      "RelativePath": "Game_Data/Managed/UnityEngine.UnityWebRequestAudioModule.dll",
      "Attributes": 32,
      "LastWriting": "2020-11-18T22:01:38Z",
      "Size": 0
    },
    {
      "Operation": 3,
      "RelativePath": "Game_Data/Managed/UnityEngine.UnityWebRequestModule.dll",
      "Attributes": 32,
      "LastWriting": "2020-11-18T22:01:24Z",
      "Size": 0
    },
    {
      "Operation": 3,
      "RelativePath": "Game_Data/Managed/UnityEngine.UnityWebRequestTextureModule.dll",
      "Attributes": 32,
      "LastWriting": "2020-11-18T22:01:40Z",
      "Size": 0
    },
    {
      "Operation": 3,
      "RelativePath": "Game_Data/Managed/UnityEngine.UnityWebRequestWWWModule.dll",
      "Attributes": 32,
      "LastWriting": "2020-11-18T22:01:48Z",
      "Size": 0
    },
    {
      "Operation": 3,
      "RelativePath": "Game_Data/Managed/UnityEngine.VehiclesModule.dll",
      "Attributes": 32,
      "LastWriting": "2020-11-18T22:01:24Z",
      "Size": 0
    },
    {
      "Operation": 3,
      "RelativePath": "Game_Data/Managed/UnityEngine.VFXModule.dll",
      "Attributes": 32,
      "LastWriting": "2020-11-18T22:01:14Z",
      "Size": 0
    },
    {
      "Operation": 3,
      "RelativePath": "Game_Data/Managed/UnityEngine.VideoModule.dll",
      "Attributes": 32,
      "LastWriting": "2020-11-18T22:01:40Z",
      "Size": 0
    },
    {
      "Operation": 3,
      "RelativePath": "Game_Data/Managed/UnityEngine.VirtualTexturingModule.dll",
      "Attributes": 32,
      "LastWriting": "2020-11-18T22:01:14Z",
      "Size": 0
    },
    {
      "Operation": 3,
      "RelativePath": "Game_Data/Managed/UnityEngine.VRModule.dll",
      "Attributes": 32,
      "LastWriting": "2020-11-18T22:01:44Z",
      "Size": 0
    },
    {
      "Operation": 3,
      "RelativePath": "Game_Data/Managed/UnityEngine.WindModule.dll",
      "Attributes": 32,
      "LastWriting": "2020-11-18T22:01:14Z",
      "Size": 0
    },
    {
      "Operation": 3,
      "RelativePath": "Game_Data/Managed/UnityEngine.XRModule.dll",
      "Attributes": 32,
      "LastWriting": "2020-11-18T22:01:38Z",
      "Size": 0
    },
    {
      "Operation": 3,
      "RelativePath": "Game_Data/Resources/unity default resources",
      "Attributes": 32,
      "LastWriting": "2020-11-18T21:55:12Z",
      "Size": 0
    },
    {
      "Operation": 3,
      "RelativePath": "Game_Data/Resources/unity_builtin_extra",
      "Attributes": 32,
      "LastWriting": "2021-04-30T18:28:08.6822692Z",
      "Size": 0
    },
    {
      "Operation": 3,
      "RelativePath": "MonoBleedingEdge/EmbedRuntime/mono-2.0-bdwgc.dll",
      "Attributes": 32,
      "LastWriting": "2020-11-18T21:55:08Z",
      "Size": 0
    },
    {
      "Operation": 3,
      "RelativePath": "MonoBleedingEdge/EmbedRuntime/MonoPosixHelper.dll",
      "Attributes": 32,
      "LastWriting": "2020-11-18T21:55:08Z",
      "Size": 0
    },
    {
      "Operation": 3,
      "RelativePath": "MonoBleedingEdge/etc/mono/browscap.ini",
      "Attributes": 32,
      "LastWriting": "2020-11-18T21:55:08Z",
      "Size": 0
    },
    {
      "Operation": 3,
      "RelativePath": "MonoBleedingEdge/etc/mono/config",
      "Attributes": 32,
      "LastWriting": "2020-11-18T21:55:08Z",
      "Size": 0
    },
    {
      "Operation": 3,
      "RelativePath": "MonoBleedingEdge/etc/mono/2.0/DefaultWsdlHelpGenerator.aspx",
      "Attributes": 32,
      "LastWriting": "2020-11-18T21:55:08Z",
      "Size": 0
    },
    {
      "Operation": 3,
      "RelativePath": "MonoBleedingEdge/etc/mono/2.0/machine.config",
      "Attributes": 32,
      "LastWriting": "2020-11-18T21:55:08Z",
      "Size": 0
    },
    {
      "Operation": 3,
      "RelativePath": "MonoBleedingEdge/etc/mono/2.0/settings.map",
      "Attributes": 32,
      "LastWriting": "2020-11-18T21:55:08Z",
      "Size": 0
    },
    {
      "Operation": 3,
      "RelativePath": "MonoBleedingEdge/etc/mono/2.0/web.config",
      "Attributes": 32,
      "LastWriting": "2020-11-18T21:55:08Z",
      "Size": 0
    },
    {
      "Operation": 3,
      "RelativePath": "MonoBleedingEdge/etc/mono/2.0/Browsers/Compat.browser",
      "Attributes": 32,
      "LastWriting": "2020-11-18T21:55:08Z",
      "Size": 0
    },
    {
      "Operation": 3,
      "RelativePath": "MonoBleedingEdge/etc/mono/4.0/DefaultWsdlHelpGenerator.aspx",
      "Attributes": 32,
      "LastWriting": "2020-11-18T21:55:08Z",
      "Size": 0
    },
    {
      "Operation": 3,
      "RelativePath": "MonoBleedingEdge/etc/mono/4.0/machine.config",
      "Attributes": 32,
      "LastWriting": "2020-11-18T21:55:08Z",
      "Size": 0
    },
    {
      "Operation": 3,
      "RelativePath": "MonoBleedingEdge/etc/mono/4.0/settings.map",
      "Attributes": 32,
      "LastWriting": "2020-11-18T21:55:08Z",
      "Size": 0
    },
    {
      "Operation": 3,
      "RelativePath": "MonoBleedingEdge/etc/mono/4.0/web.config",
      "Attributes": 32,
      "LastWriting": "2020-11-18T21:55:08Z",
      "Size": 0
    },
    {
      "Operation": 3,
      "RelativePath": "MonoBleedingEdge/etc/mono/4.0/Browsers/Compat.browser",
      "Attributes": 32,
      "LastWriting": "2020-11-18T21:55:08Z",
      "Size": 0
    },
    {
      "Operation": 3,
      "RelativePath": "MonoBleedingEdge/etc/mono/4.5/DefaultWsdlHelpGenerator.aspx",
      "Attributes": 32,
      "LastWriting": "2020-11-18T21:55:08Z",
      "Size": 0
    },
    {
      "Operation": 3,
      "RelativePath": "MonoBleedingEdge/etc/mono/4.5/machine.config",
      "Attributes": 32,
      "LastWriting": "2020-11-18T21:55:08Z",
      "Size": 0
    },
    {
      "Operation": 3,
      "RelativePath": "MonoBleedingEdge/etc/mono/4.5/settings.map",
      "Attributes": 32,
      "LastWriting": "2020-11-18T21:55:08Z",
      "Size": 0
    },
    {
      "Operation": 3,
      "RelativePath": "MonoBleedingEdge/etc/mono/4.5/web.config",
      "Attributes": 32,
      "LastWriting": "2020-11-18T21:55:08Z",
      "Size": 0
    },
    {
      "Operation": 3,
      "RelativePath": "MonoBleedingEdge/etc/mono/4.5/Browsers/Compat.browser",
      "Attributes": 32,
      "LastWriting": "2020-11-18T21:55:08Z",
      "Size": 0
    },
    {
      "Operation": 3,
      "RelativePath": "MonoBleedingEdge/etc/mono/mconfig/config.xml",
      "Attributes": 32,
      "LastWriting": "2020-11-18T21:55:08Z",
      "Size": 0
    },
    {
      "Operation": 2,
      "RelativePath": "version.data",
      "Attributes": 32,
      "LastWriting": "2021-04-30T18:29:22.7371221Z",
      "Size": 0
    }
  ]
}